…
使用的另一个选项`tidyverse`可能是将`gather`数据转换为长格式，并在和日期`group_by` `name`之间创建一个序列。`from``to`

```
library(tidyverse)

presidents %>%
  gather(key, date, -name) %>%
  group_by(name) %>%
  complete(date = seq(date[1], date[2]))%>%
  select(-key) 

# A tibble: 22 x 2
# Groups:   name [3]
#   name          date
#   <chr>        <dbl>
# 1 Barack Obama  2009
# 2 Barack Obama  2010
# 3 Barack Obama  2011
# 4 Barack Obama  2012
# 5 Bill Clinton  1993
# 6 Bill Clinton  1994
# 7 Bill Clinton  1995
# 8 Bill Clinton  1996
# 9 Bill Clinton  1997
#10 Bill Clinton  1998
# … with 12 more rows 
```
…
