…
这优于之前的 tidyr 策略`gather()`than `spread()`，因为不再删除属性（例如，日期仍然是日期，字符串仍然是字符串）。

`pivot_wider()`(counterpart: `pivot_longer()`) 与`spread()`. 但是，它提供了额外的功能，例如多值列。为此，参数`values_from`——指示取自哪一列的值——可能采用多个列名。

`NA`s 可以使用参数来填充`values_fill`。

```
library("tidyr")
library("magrittr")

pivot_wider(expensesByMonth, 
            id_cols = expense_type,
            names_from = month,
            values_from = c(value, percent))
#> # A tibble: 23 x 13
#>    expense_type `value_2012-02-~ `value_2012-03-~ `value_2012-04-~
#>    <chr>                   <dbl>            <dbl>            <dbl>
#>  1 Adjustment              442\.               2               16.4
#>  2 Bank Servic~            200              200              200  
#>  3 Cable                    21.3             36.3             NA  
#>  4 Clubbing                 75              207\.             325\. 
#>  5 Dining                   22.5             74.5             80.5
#>  6 Education              1800               NA               NA  
#>  7 Gifts                    10               89              100  
#>  8 Groceries               233\.             373\.             398\. 
#>  9 Lunch                   155\.             384\.             326\. 
#> 10 Personal Ca~             30               30               90  
#> # ... with 13 more rows, and 9 more variables: `value_2012-05-01` <dbl>,
#> #   `value_2012-06-01` <dbl>, `value_2012-07-01` <dbl>,
#> #   `percent_2012-02-01` <dbl>, `percent_2012-03-01` <dbl>,
#> #   `percent_2012-04-01` <dbl>, `percent_2012-05-01` <dbl>,
#> #   `percent_2012-06-01` <dbl>, `percent_2012-07-01` <dbl> 
```
…
