…
## 摆在一张长桌上

```
all_aes_long <- all_aes %>%
  enframe("fun","aes") %>%
  unchop(aes)

all_aes_long
#> # A tibble: 325 x 2
#>    fun         aes      
#>    <chr>       <chr>    
#>  1 geom_abline slope    
#>  2 geom_abline intercept
#>  3 geom_abline colour   
#>  4 geom_abline size     
#>  5 geom_abline linetype 
#>  6 geom_abline alpha    
#>  7 geom_abline group    
#>  8 geom_area   x        
#>  9 geom_area   y        
#> 10 geom_area   colour   
#> # ... with 315 more rows 
```

## 摆在一张宽桌子上

我建议使用`View()`可视化这个。

```
all_aes_wide <-
  all_aes_long%>%
  mutate(val = 1) %>%
  spread(aes,val,fill = 0)

all_aes_wide
#> # A tibble: 38 x 38
#>    fun   alpha angle colour family  fill fontface geometry group height
#>    <chr> <dbl> <dbl>  <dbl>  <dbl> <dbl>    <dbl>    <dbl> <dbl>  <dbl>
#>  1 geom~     1     0      1      0     0        0        0     1      0
#>  2 geom~     1     0      1      0     1        0        0     1      0
#>  3 geom~     1     0      1      0     1        0        0     1      0
#>  4 geom~     0     0      0      0     0        0        0     1      0
#>  5 geom~     1     0      1      0     1        0        0     1      0
#>  6 geom~     1     0      1      0     1        0        0     1      0
#>  7 geom~     1     0      1      0     0        0        0     1      0
#>  8 geom~     1     0      1      0     1        0        0     1      0
#>  9 geom~     1     0      1      0     0        0        0     1      0
#> 10 geom~     1     0      1      0     1        0        0     1      0
#> # ... with 28 more rows, and 28 more variables: hjust <dbl>,
#> #   intercept <dbl>, label <dbl>, lineheight <dbl>, linetype <dbl>,
#> #   lower <dbl>, map_id <dbl>, middle <dbl>, radius <dbl>, shape <dbl>,
#> #   size <dbl>, slope <dbl>, stroke <dbl>, subgroup <dbl>, upper <dbl>,
#> #   vjust <dbl>, weight <dbl>, width <dbl>, x <dbl>, xend <dbl>,
#> #   xintercept <dbl>, xmax <dbl>, xmin <dbl>, y <dbl>, yend <dbl>,
#> #   yintercept <dbl>, ymax <dbl>, ymin <dbl> 
```
…
